…
**Part One:** Data Inspection and Basic Manipulation
====================================================

### Question 1.1: Importing the Data and Gaining Familiarity

To begin, I will import the GSE60019 dataset published by Scheffer et al. I will be importing this dataset under the name: **expressionMatrix**.

``` r
expressionMatrix <- readRDS("gse60019_expression_matrix.tsv.RDS")
expressionMatrix <- expressionMatrix %>% as_tibble()
expressionMatrix
```

    ## # A tibble: 14,479 x 19
    ##    gene  GSM1463874 GSM1463872 GSM1463880 GSM1463879 GSM1463876 GSM1463877
    ##    <chr>      <dbl>      <dbl>      <dbl>      <dbl>      <dbl>      <dbl>
    ##  1 0610…     0.0522      0.528       1.45       3.46      0.800       1.48
    ##  2 0610…    14.1        13.7        33.0       30.6      37.2        31.4 
    ##  3 0610…   107.         16.2         3.80       4.68     17.9        15.2 
    ##  4 0610…     0.497       0.439       4.11       3.18      2.95        1.62
    ##  5 0610…     1.87        1.49        3.43       6.64      2.76        2.62
    ##  6 0610…    29.3        53.0         7.75      32.0      62.0        45.4 
    ##  7 0610…    87.1       196.         63.5       91.1      86.5        76.7 
    ##  8 0610…     4.34        8.69        4.81       6.28      2.71        4.01
    ##  9 0610…     4.87       12.5        19.6       14.7       9.88        9.45
    ## 10 0610…    10.5        11.3         3.91       4.36     12.8        10.6 
    ## # … with 14,469 more rows, and 12 more variables: GSM1463884 <dbl>,
    ## #   GSM1463882 <dbl>, GSM1463888 <dbl>, GSM1463886 <dbl>,
    ## #   GSM1463873 <dbl>, GSM1463871 <dbl>, GSM1463878 <dbl>,
    ## #   GSM1463875 <dbl>, GSM1463883 <dbl>, GSM1463881 <dbl>,
    ## #   GSM1463887 <dbl>, GSM1463885 <dbl>
…
    ## [1] FALSE

``` r
any (rowSums(adjustedMatrix[, 2:19]) < 1)
```

    ## [1] FALSE

``` r
expressionMatrix2 <- adjustedMatrix
expressionMatrix2[, 2:19] <- log2(adjustedMatrix[, 2:19])
expressionMatrix2
```

    ## # A tibble: 14,479 x 19
    ##    gene  GSM1463874 GSM1463872 GSM1463880 GSM1463879 GSM1463876 GSM1463877
    ##    <chr>      <dbl>      <dbl>      <dbl>      <dbl>      <dbl>      <dbl>
    ##  1 0610…     0.0734      0.611       1.29       2.16      0.848       1.31
    ##  2 0610…     3.92        3.88        5.09       4.98      5.25        5.02
    ##  3 0610…     6.76        4.11        2.26       2.51      4.24        4.02
    ##  4 0610…     0.582       0.525       2.35       2.06      1.98        1.39
    ##  5 0610…     1.52        1.31        2.15       2.93      1.91        1.85
    ##  6 0610…     4.92        5.75        3.13       5.04      5.98        5.54
    ##  7 0610…     6.46        7.62        6.01       6.53      6.45        6.28
    ##  8 0610…     2.42        3.28        2.54       2.86      1.89        2.33
    ##  9 0610…     2.55        3.76        4.37       3.97      3.44        3.39
    ## 10 0610…     3.52        3.62        2.29       2.42      3.79        3.54
    ## # … with 14,469 more rows, and 12 more variables: GSM1463884 <dbl>,
    ## #   GSM1463882 <dbl>, GSM1463888 <dbl>, GSM1463886 <dbl>,
    ## #   GSM1463873 <dbl>, GSM1463871 <dbl>, GSM1463878 <dbl>,
    ## #   GSM1463875 <dbl>, GSM1463883 <dbl>, GSM1463881 <dbl>,
    ## #   GSM1463887 <dbl>, GSM1463885 <dbl>
…
