…
Next, because there are multiple probes mapping to a specific gene, I will use the summarize() function to take the mean of each probe's expression:

``` r
(new_melted_data <- melted_data %>% 
    group_by(Sample, IDENTIFIER) %>% 
    summarize(Count = mean(value)))
```

    ## # A tibble: 279,905 x 3
    ## # Groups:   Sample [?]
    ##    Sample   IDENTIFIER   Count
    ##    <fct>    <chr>        <dbl>
    ##  1 GSM11815 --Control   8139. 
    ##  2 GSM11815 222968_at    102. 
    ##  3 GSM11815 223641_at    200. 
    ##  4 GSM11815 224429_x_at 2385. 
    ##  5 GSM11815 224438_at     32.1
    ##  6 GSM11815 225714_s_at  291. 
    ##  7 GSM11815 225934_at    284. 
    ##  8 GSM11815 226014_at     66.3
    ##  9 GSM11815 226061_s_at   45.1
    ## 10 GSM11815 226138_s_at   23.3
    ## # … with 279,895 more rows
…
### Part Three: Exercise

For this exercise, I will calculate the sum of all counts in each sample and divide each expression value by that sum:

``` r
full_data %>%
    filter(hgnc_symbol %in% names_to_choose) %>% 
    group_by(Sample) %>% 
    mutate(SumCount = sum(Count)) %>%
    mutate(ExpressionRatio = c(Count/sum(Count)))
```

    ## # A tibble: 1,700 x 7
    ## # Groups:   Sample [17]
    ##    Sample hgnc_symbol  Count chromosome_name disease SumCount
    ##    <chr>  <chr>        <dbl> <chr>           <fct>      <dbl>
    ##  1 GSM11… ADAMTS10     467.  19              RCC       90408.
    ##  2 GSM11… AGAP2         20   12              RCC       90408.
    ##  3 GSM11… AGR2          67.8 7               RCC       90408.
    ##  4 GSM11… ALKBH6      1702.  19              RCC       90408.
    ##  5 GSM11… BAD          101.  11              RCC       90408.
    ##  6 GSM11… BCDIN3D-AS1  238.  12              RCC       90408.
    ##  7 GSM11… BEND3       1138   6               RCC       90408.
    ##  8 GSM11… C15orf65     238.  15              RCC       90408.
    ##  9 GSM11… C1GALT1C1L   142.  2               RCC       90408.
    ## 10 GSM11… C4orf47      308.  4               RCC       90408.
    ## # … with 1,690 more rows, and 1 more variable: ExpressionRatio <dbl>
…
Part Four: Analyzing the Results of Statistical Tests
-----------------------------------------------------

In this section I will run statistical tests on the data. Here, I will identify the genes that are differentially expressed between the normal and RCC samples by means of running a t-test for each gene using the summarize( function:

``` r
full_data %>%
    group_by(hgnc_symbol) %>% 
    summarize( pvalue = t.test(Count ~ disease)$p.value)
```

    ## # A tibble: 9,359 x 2
    ##    hgnc_symbol pvalue
    ##    <chr>        <dbl>
    ##  1 A1BG        0.708 
    ##  2 A1BG-AS1    0.0366
    ##  3 A1CF        0.132 
    ##  4 A2MP1       0.0245
    ##  5 AADACL2     0.143 
    ##  6 AADAT       0.0304
    ##  7 AAGAB       0.469 
    ##  8 AAK1        0.0229
    ##  9 AARS2       0.0416
    ## 10 AASDH       0.0743
    ## # … with 9,349 more rows
…
